{
    "/api": {
        "target": "http://localhost:8000/api",
        "secure": false,
        "pathRewrite": {"^/api" : ""}
    },
    "/media": {
        "target": "http://localhost:8000/media",
        "secure": false,
        "pathRewrite": {"^/media" : ""}
    }
}
